<svg width="12" height="20" viewBox="0 0 12 20" fill="none" xmlns="http://www.w3.org/2000/svg">
<path d="M10.88 0.880012C10.39 0.390012 9.6 0.390012 9.11 0.880012L0.699999 9.29001C0.309999 9.68001 0.309999 10.31 0.699999 10.7L9.11 19.11C9.6 19.6 10.39 19.6 10.88 19.11C11.37 18.62 11.37 17.83 10.88 17.34L3.54 10L10.89 2.65001C11.37 2.16001 11.37 1.37001 10.88 0.880012Z" fill="#787AE3"/>
</svg>
