<svg width="18" height="18" viewBox="0 0 18 18" fill="none" xmlns="http://www.w3.org/2000/svg">
<path d="M17.2898 15.88L11.7298 10.32C12.8598 8.76999 13.3598 6.73999 12.7098 4.57999C12.0298 2.34999 10.1398 0.599994 7.85977 0.139994C3.20977 -0.800006 -0.800229 3.21999 0.139771 7.85999C0.599771 10.15 2.34977 12.04 4.57977 12.71C6.73977 13.36 8.76977 12.86 10.3198 11.73L15.8798 17.29C16.2698 17.68 16.8998 17.68 17.2898 17.29C17.6798 16.9 17.6798 16.27 17.2898 15.88ZM1.99977 6.49999C1.99977 4.00999 4.00977 1.99999 6.49977 1.99999C8.98977 1.99999 10.9998 4.00999 10.9998 6.49999C10.9998 8.98999 8.98977 11 6.49977 11C4.00977 11 1.99977 8.98999 1.99977 6.49999Z" fill="#CDCECF"/>
</svg>
